{
  "type": "service_account",
  "project_id": "fresh-argon-133116",
  "private_key_id": "c4d26b4915d57a89d4a70d55b2b51c8ebcd3e1dc",
  "private_key": "-----BEGIN PRIVATE KEY-----\nMIIEvwIBADANBgkqhkiG9w0BAQEFAASCBKkwggSlAgEAAoIBAQDBc+xyKQTVQ5Y+\ngifTQ9h92c2OyLluxMu3yjLm/PZCTJEEC64NijMEyfSmH39bskHJ5bbESB8Np5Uo\n1oBQDeWv2FVZ6r8amQuaI68RWjGmUqLvyllogGoaNATiaDyR38Od0ptBblmrACof\nBscv4DKawdsNXXGtylm9pO7i1G0NzZ/lkFA7qn8C66DJOiUvmhBsPFDnTJbx+nGY\nkuiMDuohs/uKoS1RDrBjtW6KsQGgDXIJl1EFBp0uEm3gdkZc25OS1DUtb/K4GTOJ\nMcnhBtHKVrcfY0nBs7j8k773muxySakfPpINyKoWuNv4t1IEgkNQOFQ/geryx2uh\ndeEtD80bAgMBAAECggEAGMlOmU3yJZUUUgwBKEuAGJfog4vqXmvuoizRGtF8iAAh\ncIBCm8+CO/HYW9SbT9dmIIVDRqDrAafgL6xUIm21aTNxtCSkuba0StqZmsKQq/vY\njprBm+cgMR1LJusuH46pFLagV+DYslVCEFmg+dxi/3spIuw/HYJYvzi7tup60pK2\nC/xDflU9Co2UHG609x1mlrILW2ra4QYU7Odb7hv/aWXEgJl9wx0Xexebn0bzBUZR\ng3E8g1XqD6OasQw8c41isrJQxJKUV2e3xviEUL6M7KA+Q0VfBFw3sZsYXmladDQt\npw8TyQsIMrytfiJ0Jmeep9UaNh1NKchyAXiW4jm/SQKBgQDfUMIsZPtddixpLZnW\nbtLpRWQtKutKEVuzqbDK49Y+EYp/JGik7ewMy0lfoTQgWcDb/doJuK8bPL7iybkT\nuQse0aREoGaHeXoka5HJbGbna6WX0uptCdo8hUotdRsbfEdLUJoCfXyBXmx1Z91h\nbOvyufITRYjwBastJU0pK3bSlwKBgQDdxEOfYnHunLvX6JyTefH/DuxSCBqAEaT+\nSrOgzFnLslkMgCKSL4ZvhJKC26EW7M8rMikkpb9VoMookLCHy/iCKpx1oWQ+F/4N\nHPIA2AwQMvAU20EXsDh7dxxjJ2mQlfSm0QdvZWhh+1AVI/vNYkW0goazwPI0Hg3U\ng7OjOD3eHQKBgQC4CLzMizff8PhugUcLQW+NEEObOYiIFMAG0uxAd/ziT+BcISwf\n53cloA5KwfXMR0s5wP0ED/A2uRvymB1vFIsGjewbJjj4onK3OvL9FNnFE6B2+zl4\nPKtePtY/mgeJ4iR6++S/8pw9nQwywTLfDD1yXi0SFrbgXzuPS/NH32rf5wKBgQCW\nHEiNtWxbUJpR3nFF3jBxLl/GcxfFAqyFOHl4aXqKyBFAxecgvqyoBbvKefIDe44L\ntitlVBA8XNcaOD5V3To8ma1IblNVOJZNt/8TlSotON2LsJHSAAVrhUeg0kfBh8+P\nr0PyIllSoXMmrDHAZzm5ovSc7gjEQGeqJu/MlsBB/QKBgQCdjSVPDHIwYvL/QkN2\nqnuUbXzI0Bp3fCKEIadsDcMkCJToK9Mr8/IaeSDwW7KLEK0y3syXRhgwqZM+WpJ9\nGioOa9Ng1x8G4m2hd8PFttTeoNlL3xZPHDRudVJqjGSJYxW2GJzUety0Y7FOKfxX\n8OVUoVzv46MOezWPMuEWzw2ibA==\n-----END PRIVATE KEY-----\n",
  "client_email": "luis-105@fresh-argon-133116.iam.gserviceaccount.com",
  "client_id": "111040236009743844685",
  "auth_uri": "https://accounts.google.com/o/oauth2/auth",
  "token_uri": "https://accounts.google.com/o/oauth2/token",
  "auth_provider_x509_cert_url": "https://www.googleapis.com/oauth2/v1/certs",
  "client_x509_cert_url": "https://www.googleapis.com/robot/v1/metadata/x509/luis-105%40fresh-argon-133116.iam.gserviceaccount.com"
}
